{Motor}
[Torque_Constant, Motor_Resistance, Motor_Inductance, Rotor_Inertia, Power, ratio]
0.0725, 6.365, 0.000186, 0.00000147, 20,2012
0.0825, 7.365, 0.000186, 0.00000747, 10, 3012
0.0925, 5.365, 0.100186, 0.10000747, 5, 6012
