Thermal_no_generator,,,,,,,,
Name,mass, c_p, e, Area, h, Max_heat_flow,Idle_heat_flow,ideal_temp
Thermal901,901, 899, 0.027, 1.6, 13,1000,2001,294
Thermal902,902, 898, 0.027, 1.7, 13,1000,2001,294
Thermal903,903, 899, 0.027, 1.8, 13,1000,2001,294
Thermal904,904, 899, 0.027, 1.8, 13,1000,2001,294
Thermal905,905, 899, 0.027, 1.8, 13,1000,2001,294
